<svg width="4" height="240" viewBox="0 0 4 240" fill="none" xmlns="http://www.w3.org/2000/svg">
<path fill-rule="evenodd" clip-rule="evenodd" d="M4 240V3.62647C4 1.62363 3.10457 0 2 0C0.895431 0 9.31082e-08 1.62363 0 3.62647V238.936L4 240Z" fill="url(#paint0_linear)"/>
<defs>
<linearGradient id="paint0_linear" x1="0" y1="0" x2="0" y2="240" gradientUnits="userSpaceOnUse">
<stop stop-color="#EE816F"/>
<stop offset="1" stop-color="#171A29"/>
</linearGradient>
</defs>
</svg>
