<svg width="80" height="80" viewBox="0 0 80 80" fill="none" xmlns="http://www.w3.org/2000/svg">
<path fill-rule="evenodd" clip-rule="evenodd" d="M10 0C4.47715 0 0 4.47715 0 10V70C0 75.5229 4.47715 80 10 80H70C75.5229 80 80 75.5229 80 70V10C80 4.47715 75.5229 0 70 0H10ZM18.8261 52.3537C18.8261 53.6527 17.7386 54.7465 16.4471 54.7465C15.0876 54.7465 14.068 53.721 14.068 52.3537V27.6739C14.068 20.017 20.2536 13.7958 27.9346 13.7958H52.2013V10.5142C52.2013 9.6255 52.6771 8.73675 53.4928 8.32656C54.2405 7.848 55.2601 7.91637 56.0078 8.39493L64.8444 14.0009C65.5922 14.4794 66 15.2314 66 16.1202C66 17.0089 65.5922 17.761 64.8444 18.2395L56.0758 23.9138C55.668 24.1873 55.1922 24.324 54.7163 24.324C54.3085 24.324 53.9007 24.1873 53.4928 23.9822C52.6771 23.572 52.2013 22.7516 52.2013 21.7945V18.513H27.9346C22.9046 18.513 18.8261 22.6149 18.8261 27.6739V52.3537ZM50.366 43.6713L54.1726 43.2612C54.7843 43.1928 55.2601 42.7142 55.2601 42.0989V38.8174C55.2601 38.2021 54.7843 37.6552 54.1726 37.6552L50.366 37.245C50.2301 37.245 50.0941 37.1083 50.0941 37.0399C49.9582 36.6297 49.7542 36.2195 49.5503 35.8094C49.4824 35.6726 49.4824 35.5359 49.6183 35.3992L52.0654 32.3911C52.4732 31.9125 52.4052 31.2289 51.9974 30.7503L49.6863 28.4259C49.2784 28.0157 48.5307 27.9474 48.0549 28.3576L45.0641 30.8187C44.9281 30.8871 44.7922 30.9554 44.6562 30.8871C44.2484 30.682 43.8405 30.4769 43.4327 30.3401C43.2967 30.2718 43.2288 30.2034 43.2288 30.0667L42.8209 26.2382C42.7529 25.6229 42.2771 25.1444 41.6654 25.1444H38.4026C37.7908 25.1444 37.2471 25.6229 37.2471 26.2382L36.8392 30.0667C36.8392 30.2034 36.7033 30.3401 36.6353 30.3401C36.2275 30.4769 35.8196 30.682 35.4118 30.887C35.2758 30.9554 35.1399 30.9554 35.0039 30.8187L32.0131 28.3576C31.5373 27.9474 30.8575 28.0157 30.3817 28.4259L28.0706 30.7503C27.6627 31.1605 27.5948 31.9125 28.0026 32.3911L30.4497 35.3992C30.5176 35.5359 30.5856 35.6726 30.5176 35.8094C30.3137 36.2195 30.1098 36.6297 29.9739 37.0399C29.9059 37.1767 29.8379 37.245 29.702 37.245L25.8954 37.6552C25.2837 37.7236 24.8078 38.2021 24.8078 38.8174V42.0989C24.8078 42.7142 25.2837 43.2612 25.8954 43.2612L29.702 43.6713C29.8379 43.6713 29.9739 43.8081 29.9739 43.8764C30.1098 44.2866 30.3137 44.6968 30.5176 45.107C30.5856 45.2437 30.5856 45.3805 30.4497 45.5172L28.0026 48.5253C27.5948 49.0038 27.6627 49.6875 28.0706 50.166L30.3817 52.4905C30.7895 52.9006 31.5373 52.969 32.0131 52.5588L35.0039 50.0977C35.1399 50.0293 35.2758 49.9609 35.4118 50.0293L35.4118 50.0293C35.8196 50.2344 36.2275 50.4395 36.6353 50.5762C36.7712 50.6446 36.8392 50.713 36.8392 50.8497L37.2471 54.6781C37.315 55.2934 37.7908 55.772 38.4026 55.772H41.6654C42.2771 55.772 42.8209 55.2934 42.8209 54.6781L43.2288 50.8497C43.2288 50.713 43.3647 50.5762 43.4327 50.5762C43.8405 50.4395 44.2484 50.2344 44.6562 50.0293C44.7922 49.9609 44.9281 49.9609 45.0641 50.0977L48.0549 52.5588C48.5307 52.969 49.2105 52.9006 49.6863 52.4905L51.9974 50.166C52.4052 49.7558 52.4732 49.0038 52.0654 48.5253L49.6183 45.5172C49.5503 45.3805 49.4824 45.2437 49.5503 45.107C49.7542 44.6968 49.9582 44.2866 50.0941 43.8764C50.0941 43.8081 50.2301 43.6713 50.366 43.6713ZM39.966 46.1325C36.8392 46.1325 34.3242 43.603 34.3242 40.4582C34.3242 37.3134 36.8392 34.7839 39.966 34.7839C43.0928 34.7839 45.6078 37.3134 45.6078 40.4582C45.6078 43.603 43.0928 46.1325 39.966 46.1325ZM63.485 26.1699C62.1935 26.1699 61.1059 27.2637 61.1059 28.5626V53.2425C61.1059 58.3015 57.0275 62.4034 51.9974 62.4034H27.7987V59.1219C27.7987 58.1648 27.3229 57.3444 26.5072 56.9342C25.6915 56.524 24.7399 56.524 23.9242 57.0026L15.1556 62.6769C14.4078 63.1554 14 63.9074 14 64.7962C14 65.6849 14.4078 66.437 15.1556 66.9155L23.9242 72.5898C24.332 72.8633 24.8078 73 25.2837 73C25.6915 73 26.0993 72.8633 26.5072 72.6582C27.3229 72.248 27.7987 71.3592 27.7987 70.4705V67.189H52.0654C59.6784 67.189 65.932 60.9677 65.932 53.2425V28.5626C65.8641 27.1953 64.8444 26.1699 63.485 26.1699Z" fill="#EE816F"/>
</svg>
