<svg width="56" height="56" viewBox="0 0 56 56" fill="none" xmlns="http://www.w3.org/2000/svg">
<path fill-rule="evenodd" clip-rule="evenodd" d="M7 0C3.13401 0 0 3.13401 0 7V49C0 52.866 3.13401 56 7 56H49C52.866 56 56 52.866 56 49V7C56 3.13401 52.866 0 49 0H7ZM12.7626 38.2983C11.6811 38.3572 10.6043 38.1164 9.65003 37.6022C7.52689 36.4655 6.29484 34.1575 6.52816 31.754C6.76148 29.3504 8.41424 27.3244 10.7161 26.6203C12.3397 26.1203 14.099 26.3423 15.5486 27.2303C16.9983 28.1183 17.9993 29.5871 18.2983 31.2649C19.7466 31.3095 21.1925 31.118 22.5796 30.6977C28.7062 28.8502 32.7007 22.646 32.0242 16.1411L31.2279 17.0992C30.5561 17.9079 29.3585 18.0175 28.5521 17.3441C27.7463 16.67 27.6371 15.4681 28.308 14.6588L32.0199 10.1861C32.6917 9.37748 33.8893 9.26788 34.6958 9.94123L39.1569 13.6663C39.9243 14.3503 40.0121 15.522 39.3553 16.3135C38.6985 17.1049 37.5342 17.2302 36.7251 16.5965L35.7961 15.8189C36.5881 24.0897 31.4548 31.9996 23.7056 34.3455C21.7815 34.9295 19.7701 35.1695 17.7631 35.0544L17.7203 35.1403C16.981 36.5414 15.7137 37.5873 14.2011 38.0448C13.7337 38.1878 13.2506 38.2729 12.7626 38.2983ZM11.8335 30.2681C11.2826 30.4305 10.8198 30.8083 10.5491 31.3164L10.562 31.3207C10.1086 32.1828 10.2905 33.2432 11.005 33.9036C11.7195 34.5639 12.7875 34.6588 13.6064 34.1345C14.4253 33.6103 14.7899 32.5984 14.4944 31.6698C14.1989 30.7412 13.3174 30.1287 12.3473 30.1779C12.173 30.1872 12.0005 30.2175 11.8335 30.2681ZM14.6292 19.3979L16.2604 17.7523L14.6292 16.1153C13.9277 15.3675 13.9421 14.1966 14.6617 13.4663C15.3813 12.7361 16.5478 12.7086 17.3008 13.4042L18.9105 15.0369L20.5332 13.387C21.0041 12.8737 21.7168 12.6593 22.3915 12.8281C23.0662 12.9969 23.5952 13.5219 23.7709 14.197C23.9466 14.8722 23.7409 15.5898 23.2347 16.0681L21.612 17.7179L23.2561 19.3463C23.852 19.7891 24.137 20.5392 23.9861 21.2677C23.8352 21.9963 23.276 22.5703 22.5536 22.7381C21.8312 22.9058 21.0776 22.6368 20.6231 22.0488L18.979 20.4204L17.3564 22.0703C16.621 22.8261 15.4144 22.8405 14.6613 22.1025C13.9082 21.3646 13.8938 20.1536 14.6292 19.3979ZM48.4435 32.2877C48.6117 31.6106 48.3981 30.8954 47.8865 30.4228L46.2382 28.8073L47.8608 27.1574C48.3996 26.6099 48.5579 25.7912 48.2622 25.0812C47.9665 24.3712 47.2747 23.909 46.5079 23.9092C46.0037 23.9111 45.5212 24.1153 45.1679 24.4764L43.5453 26.1262L41.9012 24.4936C41.1483 23.7979 39.9817 23.8254 39.2621 24.5557C38.5425 25.2859 38.5282 26.4569 39.2297 27.2047L40.8694 28.8201L39.2468 30.47C38.7074 31.0181 38.5494 31.8379 38.8462 32.5482C39.143 33.2586 39.8364 33.7201 40.604 33.7182C41.1097 33.7174 41.594 33.5131 41.9483 33.151L43.5752 31.5012L45.215 33.1339C45.6916 33.6419 46.4066 33.8483 47.0794 33.672C47.7522 33.4957 48.2753 32.9648 48.4435 32.2877ZM33.0389 40.9106L31.4163 42.5604L33.0603 44.1888C33.5719 44.6614 33.7855 45.3766 33.6173 46.0537C33.4491 46.7308 32.9259 47.2617 32.2532 47.438C31.5804 47.6144 30.8654 47.408 30.3888 46.8999L28.7576 45.2715L27.1307 46.9214C26.7763 47.2835 26.292 47.4878 25.7863 47.4885C25.0203 47.487 24.3301 47.0242 24.0355 46.3146C23.7409 45.605 23.8994 44.7873 24.4377 44.2404L26.0603 42.5905L24.4035 40.9535C23.702 40.2057 23.7163 39.0348 24.4359 38.3045C25.1555 37.5743 26.3221 37.5468 27.075 38.2424L28.719 39.8751L30.3417 38.2252C30.695 37.8642 31.1775 37.66 31.6817 37.6581C32.4511 37.6544 33.1469 38.1166 33.4441 38.8289C33.7413 39.5411 33.5813 40.3629 33.0389 40.9106Z" fill="#EE816F"/>
</svg>
