<svg width="32" height="32" viewBox="0 0 32 32" fill="none" xmlns="http://www.w3.org/2000/svg">
<path fill-rule="evenodd" clip-rule="evenodd" d="M4 0C1.79086 0 0 1.79086 0 4V28C0 30.2091 1.79086 32 4 32H28C30.2091 32 32 30.2091 32 28V4C32 1.79086 30.2091 0 28 0H4ZM23.1465 6C24.3332 6 25.2953 6.96387 25.2953 8.15287C25.2953 9.34186 24.3332 10.3057 23.1465 10.3057C22.5766 10.3057 22.03 10.0789 21.627 9.67517C21.2241 9.27143 20.9977 8.72384 20.9977 8.15287C20.9977 6.96387 21.9597 6 23.1465 6ZM5 8.09413V19.3577C4.9994 19.7362 5.14904 20.0993 5.41592 20.3671C5.68281 20.6349 6.04504 20.7854 6.42277 20.7854H13.3652L9.32242 25.8208C9.08211 26.1203 9.12955 26.5582 9.42839 26.799L9.48702 26.8464C9.78589 27.0872 10.223 27.0397 10.4633 26.7403L13.9537 22.3916V26.2885C13.9537 26.6727 14.2647 26.9842 14.6482 26.9842H14.7271C15.1107 26.9842 15.4216 26.6727 15.4216 26.2885V22.3916L18.9188 26.7403C19.1591 27.0397 19.5962 27.0872 19.8951 26.8464L19.9537 26.799C20.2525 26.5582 20.3 26.1203 20.0597 25.8208L16.0011 20.7741H19.7914L19.1149 14.3494L15.115 14.1009C13.9945 14.0609 13.1037 13.1449 13.0929 12.0217C13.082 10.8985 13.9549 9.96542 15.0744 9.90362L19.956 9.59188C19.5331 8.66176 19.5414 7.59213 19.9785 6.66868H6.42277C5.637 6.66868 5 7.30687 5 8.09413ZM25.1758 10.8728H24.4993C24.4721 10.8726 24.4462 10.8851 24.4294 10.9066L23.3156 12.2982C23.2727 12.3492 23.2096 12.3786 23.1431 12.3786C23.0766 12.3786 23.0134 12.3492 22.9706 12.2982L21.8567 10.9044C21.8402 10.884 21.8153 10.8724 21.7891 10.8728L20.8443 10.8908L15.1398 11.259C14.9398 11.2777 14.7559 11.3766 14.6298 11.5331C14.5037 11.6897 14.4461 11.8906 14.4701 12.0904C14.5238 12.4592 14.8313 12.7379 15.2029 12.7545L20.2581 13.0798C20.3049 13.0828 20.3429 13.119 20.3483 13.1657L21.3449 22.5159L21.7598 26.3404C21.801 26.6971 22.1026 26.9663 22.461 26.9662H23.8703C24.2301 26.9647 24.5313 26.6922 24.5692 26.3336L25.4576 18.1536C26.0064 17.9529 26.3948 17.4588 26.461 16.8773L26.9886 12.8946C27.0464 12.3799 26.8826 11.8649 26.5383 11.4786C26.194 11.0923 25.7017 10.8711 25.1848 10.8705L25.1758 10.8728Z" fill="#ABCFE1"/>
</svg>
